([('main.exe',
   'C:\\Users\\Jan\\PycharmProjects\\FarmConvertor\\build\\main\\main.exe',
   'EXECUTABLE'),
  ('main.exe.manifest',
   'C:\\Users\\Jan\\PycharmProjects\\FarmConvertor\\build\\main\\main.exe.manifest',
   'BINARY'),
  ('VCRUNTIME140.dll',
   'c:\\users\\jan\\appdata\\local\\programs\\python\\python39\\VCRUNTIME140.dll',
   'BINARY'),
  ('python39.dll',
   'c:\\users\\jan\\appdata\\local\\programs\\python\\python39\\python39.dll',
   'BINARY'),
  ('_lzma',
   'c:\\users\\jan\\appdata\\local\\programs\\python\\python39\\DLLs\\_lzma.pyd',
   'EXTENSION'),
  ('_bz2',
   'c:\\users\\jan\\appdata\\local\\programs\\python\\python39\\DLLs\\_bz2.pyd',
   'EXTENSION'),
  ('unicodedata',
   'c:\\users\\jan\\appdata\\local\\programs\\python\\python39\\DLLs\\unicodedata.pyd',
   'EXTENSION'),
  ('select',
   'c:\\users\\jan\\appdata\\local\\programs\\python\\python39\\DLLs\\select.pyd',
   'EXTENSION'),
  ('_socket',
   'c:\\users\\jan\\appdata\\local\\programs\\python\\python39\\DLLs\\_socket.pyd',
   'EXTENSION'),
  ('_decimal',
   'c:\\users\\jan\\appdata\\local\\programs\\python\\python39\\DLLs\\_decimal.pyd',
   'EXTENSION'),
  ('_overlapped',
   'c:\\users\\jan\\appdata\\local\\programs\\python\\python39\\DLLs\\_overlapped.pyd',
   'EXTENSION'),
  ('_ssl',
   'c:\\users\\jan\\appdata\\local\\programs\\python\\python39\\DLLs\\_ssl.pyd',
   'EXTENSION'),
  ('_asyncio',
   'c:\\users\\jan\\appdata\\local\\programs\\python\\python39\\DLLs\\_asyncio.pyd',
   'EXTENSION'),
  ('_queue',
   'c:\\users\\jan\\appdata\\local\\programs\\python\\python39\\DLLs\\_queue.pyd',
   'EXTENSION'),
  ('_ctypes',
   'c:\\users\\jan\\appdata\\local\\programs\\python\\python39\\DLLs\\_ctypes.pyd',
   'EXTENSION'),
  ('_multiprocessing',
   'c:\\users\\jan\\appdata\\local\\programs\\python\\python39\\DLLs\\_multiprocessing.pyd',
   'EXTENSION'),
  ('pyexpat',
   'c:\\users\\jan\\appdata\\local\\programs\\python\\python39\\DLLs\\pyexpat.pyd',
   'EXTENSION'),
  ('_hashlib',
   'c:\\users\\jan\\appdata\\local\\programs\\python\\python39\\DLLs\\_hashlib.pyd',
   'EXTENSION'),
  ('libssl-1_1.dll',
   'c:\\users\\jan\\appdata\\local\\programs\\python\\python39\\DLLs\\libssl-1_1.dll',
   'BINARY'),
  ('libcrypto-1_1.dll',
   'c:\\users\\jan\\appdata\\local\\programs\\python\\python39\\DLLs\\libcrypto-1_1.dll',
   'BINARY'),
  ('libffi-7.dll',
   'c:\\users\\jan\\appdata\\local\\programs\\python\\python39\\DLLs\\libffi-7.dll',
   'BINARY'),
  ('base_library.zip',
   'C:\\Users\\Jan\\PycharmProjects\\FarmConvertor\\build\\main\\base_library.zip',
   'DATA')],)
