('C:\\Users\\Jan\\PycharmProjects\\FarmConvertor\\build\\main\\PKG-00.pkg',
 {'BINARY': 1,
  'DATA': 1,
  'EXECUTABLE': 1,
  'EXTENSION': 1,
  'PYMODULE': 1,
  'PYSOURCE': 1,
  'PYZ': 0,
  'SPLASH': 1},
 [('PYZ-00.pyz',
   'C:\\Users\\Jan\\PycharmProjects\\FarmConvertor\\build\\main\\PYZ-00.pyz',
   'PYZ'),
  ('struct',
   'c:\\users\\jan\\appdata\\local\\programs\\python\\python39\\lib\\struct.pyo',
   'PYMODULE'),
  ('pyimod01_os_path',
   'c:\\users\\jan\\appdata\\local\\programs\\python\\python39\\lib\\site-packages\\PyInstaller\\loader\\pyimod01_os_path.pyc',
   'PYMODULE'),
  ('pyimod02_archive',
   'c:\\users\\jan\\appdata\\local\\programs\\python\\python39\\lib\\site-packages\\PyInstaller\\loader\\pyimod02_archive.pyc',
   'PYMODULE'),
  ('pyimod03_importers',
   'c:\\users\\jan\\appdata\\local\\programs\\python\\python39\\lib\\site-packages\\PyInstaller\\loader\\pyimod03_importers.pyc',
   'PYMODULE'),
  ('pyimod04_ctypes',
   'c:\\users\\jan\\appdata\\local\\programs\\python\\python39\\lib\\site-packages\\PyInstaller\\loader\\pyimod04_ctypes.pyc',
   'PYMODULE'),
  ('pyiboot01_bootstrap',
   'c:\\users\\jan\\appdata\\local\\programs\\python\\python39\\lib\\site-packages\\PyInstaller\\loader\\pyiboot01_bootstrap.py',
   'PYSOURCE'),
  ('pyi_rth_pkgutil',
   'C:\\Users\\Jan\\AppData\\Local\\Programs\\Python\\Python39\\Lib\\site-packages\\PyInstaller\\hooks\\rthooks\\pyi_rth_pkgutil.py',
   'PYSOURCE'),
  ('pyi_rth_multiprocessing',
   'C:\\Users\\Jan\\AppData\\Local\\Programs\\Python\\Python39\\Lib\\site-packages\\PyInstaller\\hooks\\rthooks\\pyi_rth_multiprocessing.py',
   'PYSOURCE'),
  ('pyi_rth_inspect',
   'C:\\Users\\Jan\\AppData\\Local\\Programs\\Python\\Python39\\Lib\\site-packages\\PyInstaller\\hooks\\rthooks\\pyi_rth_inspect.py',
   'PYSOURCE'),
  ('main',
   'C:\\Users\\Jan\\PycharmProjects\\FarmConvertor\\main.py',
   'PYSOURCE'),
  ('main.exe.manifest',
   'C:\\Users\\Jan\\PycharmProjects\\FarmConvertor\\build\\main\\main.exe.manifest',
   'BINARY')],
 True,
 False,
 False,
 [],
 None,
 None,
 None)
